<?xml version="1.0" encoding="utf-8"?>
<!-- Generator: Adobe Illustrator 19.0.0, SVG Export Plug-In . SVG Version: 6.00 Build 0)  -->
<svg version="1.1" id="Layer_1" xmlns="http://www.w3.org/2000/svg" xmlns:xlink="http://www.w3.org/1999/xlink" x="0px" y="0px"
	 viewBox="-166 198.4 261.7 445.5" style="enable-background:new -166 198.4 261.7 445.5;" xml:space="preserve">
<style type="text/css">
	.st0{fill:#FFFFFF;}
	.st1{fill:#E1F1FB;}
	.st2{fill:#B8DEF7;}
	.st3{fill:#0071BB;}
	.st4{fill:#9EDCF8;}
	.st5{fill:url(#SVGID_1_);}
	.st6{fill:#00BFF2;}
	.st7{display:none;fill:#EC1C24;}
	.st8{display:none;fill:#C10E1A;}
	.st9{fill:#DA291C;}
</style>
<rect x="-166" y="198.6" class="st0" width="261.7" height="371.2"/>
<g>
	<polygon class="st1" points="95.7,580.2 95.7,470.9 43.8,453.6 -166,559.4 -166,643.6 -52.2,589.3 23.8,613.9 	"/>
	<polygon class="st2" points="95.7,580.2 95.7,548.3 42.2,575.1 -21.5,554.7 -166,625.8 -166,643.6 -52.2,589.3 23.8,613.9 	"/>
</g>
<g>
	<g>
		<path class="st3" d="M-129.1,448.3L-129.1,448.3c0-1.1-0.4-2.1-1.1-2.8c-0.9-0.9-2.2-1.4-4-1.4h-6V458h1.6v-5.4h4l4,5.4h1.9
			l-4.3-5.7C-130.7,451.8-129.1,450.6-129.1,448.3z M-138.6,451.1v-5.7h4.3c2.2,0,3.6,1,3.6,2.7l0,0c0,1.8-1.5,2.9-3.6,2.9
			L-138.6,451.1L-138.6,451.1z M-115.8,452.1c0,3-1.6,4.6-4.2,4.6c-2.7,0-4.3-1.7-4.3-4.7v-8h-1.6v8.1c0,3.9,2.4,6.1,5.8,6.1
			c3.5,0,5.8-2.1,5.8-6.2v-8h-1.6L-115.8,452.1L-115.8,452.1L-115.8,452.1z M-105.3,450.3c-3.1-0.7-3.8-1.4-3.8-2.7l0,0
			c0-1.3,1.2-2.3,3-2.3c1.4,0,2.7,0.5,4,1.5l0.9-1.2c-1.4-1.1-2.9-1.7-4.9-1.7c-2.6,0-4.6,1.6-4.6,3.8l0,0c0,2.3,1.5,3.3,4.7,4
			c2.9,0.6,3.6,1.4,3.6,2.7l0,0c0,1.4-1.2,2.4-3.1,2.4s-3.3-0.7-4.8-2l-1,1.2c1.7,1.5,3.5,2.2,5.7,2.2c2.8,0,4.8-1.6,4.8-3.9l0,0
			C-100.8,452.1-102.2,450.9-105.3,450.3z M-92.3,450.3c-3.1-0.7-3.8-1.4-3.8-2.7l0,0c0-1.3,1.2-2.3,3-2.3c1.4,0,2.7,0.5,4,1.5
			l0.9-1.2c-1.4-1.1-2.9-1.7-4.9-1.7c-2.6,0-4.6,1.6-4.6,3.8l0,0c0,2.3,1.5,3.3,4.7,4c2.9,0.6,3.6,1.4,3.6,2.7l0,0
			c0,1.4-1.2,2.4-3.1,2.4s-3.3-0.7-4.8-2l-1,1.2c1.7,1.5,3.5,2.2,5.7,2.2c2.8,0,4.8-1.6,4.8-3.9l0,0
			C-87.8,452.1-89.2,450.9-92.3,450.3z M-84.2,457.9h1.6V444h-1.6V457.9z M-73.3,443.9l-6.4,14.1h1.6l1.7-3.7h7.6l1.6,3.7h1.7
			l-6.4-14.1H-73.3z M-75.8,452.8l3.2-7.1l3.2,7.1H-75.8z M-52.4,444.1v11.2l-8.8-11.2h-1.5V458h1.5v-11.4l9,11.4h1.3v-13.9H-52.4z"
			/>
		<path class="st3" d="M-140.1,513.1h1.6V507h7.6v-1.4h-7.6v-5h8.5v-1.5h-10v14H-140.1z M-120.8,498.9c-4.2,0-7.1,3.4-7.1,7.2l0,0
			c0,3.8,2.9,7.2,7.1,7.2s7.1-3.4,7.1-7.2l0,0C-113.7,502.3-116.5,498.9-120.8,498.9z M-115.3,506.1c0,3.2-2.3,5.7-5.5,5.7
			s-5.5-2.6-5.5-5.8l0,0c0-3.2,2.3-5.7,5.5-5.7C-117.6,500.3-115.3,502.9-115.3,506.1L-115.3,506.1z M-99,503.3L-99,503.3
			c0-1.1-0.4-2.1-1.1-2.8c-0.9-0.9-2.2-1.4-4-1.4h-6v14h1.6v-5.3h4l4,5.4h1.9l-4.3-5.7C-100.6,507.1-99,505.6-99,503.3z
			 M-108.4,506.3v-5.7h4.3c2.2,0,3.6,1,3.6,2.7l0,0c0,1.8-1.5,2.9-3.6,2.9L-108.4,506.3L-108.4,506.3z M-85.6,507.3
			c0,3-1.6,4.6-4.2,4.6c-2.7,0-4.3-1.7-4.3-4.7v-8h-1.6v8.1c0,3.9,2.4,6.1,5.8,6.1c3.5,0,5.8-2.1,5.8-6.2v-8h-1.6L-85.6,507.3
			L-85.6,507.3z M-68.1,499.1l-5.1,7.6l-5.1-7.6h-1.6v14h1.5v-11.3l5.1,7.5h0.1l5.1-7.5v11.3h1.6v-14L-68.1,499.1L-68.1,499.1z"/>
		<path class="st3" d="M-140,485.6h1.6v-14h-1.6V485.6z M-123.8,482.8l-8.8-11.2h-1.5v14h1.5v-11.4l9,11.4h1.3v-14h-1.5V482.8z
			 M-112.7,483.6l-5-12h-1.8l6,14.1h1.4l6-14.1h-1.7L-112.7,483.6z M-101.6,479.3h7.6v-1.5h-7.6V473h8.5v-1.4h-10.1v14H-93v-1.5
			h-8.6V479.3z M-84.5,477.8c-3.1-0.7-3.8-1.4-3.8-2.7l0,0c0-1.3,1.2-2.3,3-2.3c1.4,0,2.7,0.5,4,1.5l0.9-1.2
			c-1.4-1.1-2.9-1.7-4.9-1.7c-2.6,0-4.6,1.6-4.6,3.8l0,0c0,2.3,1.5,3.3,4.7,4c2.9,0.6,3.6,1.4,3.6,2.6l0,0c0,1.4-1.2,2.4-3.1,2.4
			s-3.3-0.7-4.8-2l-1,1.2c1.7,1.5,3.5,2.2,5.7,2.2c2.8,0,4.8-1.6,4.8-3.9l0,0C-80,479.6-81.4,478.4-84.5,477.8z M-77.6,473.1h4.7
			v12.5h1.6v-12.5h4.7v-1.5h-11C-77.6,471.6-77.6,473.1-77.6,473.1z M-57,479.3l-5.1-7.6h-1.6v14h1.5v-11.3l5.1,7.5h0.1l5.1-7.5
			v11.3h1.6v-14h-1.6L-57,479.3z M-44.4,479.3h7.6v-1.5h-7.6V473h8.5v-1.4H-46v14h10.2v-1.5h-8.6V479.3L-44.4,479.3z M-22.3,482.8
			l-8.8-11.2h-1.5v14h1.5v-11.4l9,11.4h1.3v-14h-1.5V482.8z M-17.9,471.6v1.5h4.7v12.5h1.6v-12.5h4.7v-1.5H-17.9z"/>
	</g>
	<g>
		<g>
			<polygon class="st4" points="-106.4,301.3 -77.4,284.6 -49.7,294.6 -7.8,270.3 41.3,288.3 62.9,275.8 72.8,279.3 72.8,267.9 
				42.7,256.9 18.6,270.8 -14.3,258.8 -31.7,268.8 -82.6,250.3 -140.2,283.6 -140.2,306.1 -122,295.6 			"/>
			
				<linearGradient id="SVGID_1_" gradientUnits="userSpaceOnUse" x1="-140.2" y1="179.1" x2="72.8" y2="179.1" gradientTransform="matrix(1 0 0 1 0 163.89)">
				<stop  offset="0" style="stop-color:#FFD300"/>
				<stop  offset="4.429173e-002" style="stop-color:#FDC004"/>
				<stop  offset="0.1562" style="stop-color:#F9940C"/>
				<stop  offset="0.2736" style="stop-color:#F56F14"/>
				<stop  offset="0.3954" style="stop-color:#F2511A"/>
				<stop  offset="0.523" style="stop-color:#EF3A1E"/>
				<stop  offset="0.6588" style="stop-color:#ED2921"/>
				<stop  offset="0.8087" style="stop-color:#EC1F23"/>
				<stop  offset="1" style="stop-color:#EC1C24"/>
			</linearGradient>
			<polygon class="st5" points="72.8,312.3 22.8,341.1 -26.6,323.1 -77.3,352.4 -118.1,337.6 -140.2,350.3 -140.2,373.6 
				-107.5,354.8 -74.5,366.8 -20.6,335.6 22.4,351.3 72.8,322.3 			"/>
			<g>
				<polygon class="st3" points="29.1,324.1 -37.3,299.9 -64.4,316.4 -122,295.6 -140.2,306.1 -140.2,350.3 -118.1,337.6 
					-77.3,352.4 -26.6,323.1 22.8,341.1 72.8,312.3 72.8,298.8 				"/>
			</g>
			<g>
				<polygon class="st6" points="62.9,275.8 41.3,288.3 -7.8,270.3 -49.7,294.6 -77.4,284.6 -106.4,301.3 -64.4,316.4 -37.3,299.9 
					29.1,324.1 72.8,298.8 72.8,279.3 				"/>
			</g>
		</g>
		<g>
			<path class="st3" d="M-127.2,402.3c-5.3-1.4-6.6-2-6.6-4.1v-0.1c0-1.5,1.4-2.7,4-2.7s5.3,1.1,8,3l3.5-5.1
				c-3.1-2.5-7-3.9-11.4-3.9c-6.3,0-10.8,3.7-10.8,9.3v0.1c0,6.1,4,7.8,10.2,9.4c5.2,1.3,6.2,2.2,6.2,3.9v0.1c0,1.8-1.7,2.9-4.4,2.9
				c-3.5,0-6.4-1.5-9.2-3.7l-4,4.8c3.7,3.3,8.4,4.9,13.1,4.9c6.6,0,11.3-3.4,11.3-9.6v-0.1C-117.4,406.1-120.9,403.8-127.2,402.3z
				 M-96.9,389.3c-9.5,0-16.4,7.2-16.4,15.9v0.1c0,8.8,6.8,15.8,16.3,15.8s16.4-7.2,16.4-15.9v-0.1
				C-80.6,396.4-87.4,389.3-96.9,389.3z M-87.6,405.3c0,5.3-3.8,9.6-9.2,9.6c-5.5,0-9.3-4.4-9.3-9.7v-0.1c0-5.3,3.8-9.6,9.2-9.6
				S-87.6,399.9-87.6,405.3L-87.6,405.3z M-60.1,414.9c-5.3,0-8.9-4.4-8.9-9.7v-0.1c0-5.3,3.7-9.6,8.9-9.6c3.1,0,5.5,1.3,7.9,3.5
				l4.3-5c-2.9-2.8-6.3-4.8-12.2-4.8c-9.5,0-16.1,7.2-16.1,15.9v0.1c0,8.8,6.7,15.8,15.8,15.8c5.9,0,9.5-2.1,12.6-5.5l-4.3-4.4
				C-54.4,413.6-56.6,414.9-60.1,414.9z M-23.4,402.1h-12.5v-12.3h-6.8v30.8h6.8v-12.4h12.5v12.4h6.8v-30.8h-6.8
				C-23.4,389.8-23.4,402.1-23.4,402.1z M-8.8,389.8v30.8H-2v-30.8H-8.8z"/>
			<path class="st7" d="M-157.6,579.1l2.6,9.9l7.1-1.7v32h11.9v-44.2h-7.9L-157.6,579.1z M-98.2,596.5c2.9-2.3,4.3-5.2,4.3-8.9v-0.1
				c0-7.3-6.9-12.6-16.4-12.6s-16.4,5.3-16.4,12.6v0.1c0,3.7,1.3,6.6,4.2,8.9c-3.9,2.3-5.7,5.6-5.7,10.1v0.1
				c0,7.8,7.4,13.2,17.9,13.2c10.7,0,17.9-5.4,17.9-13.5v-0.1C-92.5,601.3-95.1,598.5-98.2,596.5z M-115.2,588.5c0-2,2-3.5,4.8-3.5
				c3.2,0,4.8,1.8,4.8,3.5v0.1c0,2.2-1.9,3.7-4.8,3.7S-115.2,590.8-115.2,588.5L-115.2,588.5z M-104.2,606c0,2.3-2.5,3.8-6.1,3.8
				s-6.1-1.6-6.1-3.8v-0.1c0-2.8,3.3-3.8,6.1-3.8C-107.5,602.1-104.2,603.2-104.2,606L-104.2,606z"/>
		</g>
	</g>
</g>
<path class="st8" d="M-156.8,578.6l2.6,9.8l7.1-1.7v31.8h11.9v-43.9h-7.9L-156.8,578.6z M-97.4,579.1c-3.6-3.5-7.3-4.8-13.2-4.8
	c-10.2,0-17.6,6.6-17.6,15.6v0.1c0,4.4,1.6,8.1,4.6,10.7c2.9,2.5,7,3.8,11.9,3.8c2.5,0,4.8-0.5,6.8-1.4c-0.8,2.5-2.7,5.3-6.8,5.3
	c-3.2,0-5.5-0.9-8.5-3.2l-1.1-0.8l-6.4,8.9l1,0.8c4.5,3.6,9,5.1,14.8,5.1c12.3,0,20-9.1,20-23.7v-0.1
	C-91.9,587.9-93.6,582.6-97.4,579.1z M-104.1,589.7c0,3-2.3,4.8-6,4.8c-3.8,0-6.2-1.9-6.2-4.9v-0.1c0-3.1,2.2-4.9,6-4.9
	C-106.5,584.6-104.1,586.5-104.1,589.7L-104.1,589.7z"/>
<g>
	<g>
		<path class="st9" d="M8.4,414l14-11.5c5.2-4.3,7.3-6.6,7.3-10.1c0-3.6-2.3-5.5-5.7-5.5c-3.2,0-5.5,1.8-8.6,5.7l-6.5-5.2
			c4.2-5.7,8.2-8.7,15.7-8.7c8.7,0,14.5,5.1,14.5,13v0.1c0,7-3.6,10.5-11.1,16.3l-6.9,5.3h18.4v8H8.4L8.4,414L8.4,414z"/>
		<path class="st9" d="M43.3,400.4L43.3,400.4c0-12.3,7.6-21.9,18.8-21.9c11.1,0,18.7,9.4,18.7,21.7v0.1c0,12.2-7.5,21.8-18.8,21.8
			S43.3,412.6,43.3,400.4z M71.2,400.4L71.2,400.4c0-7.7-3.7-13.5-9.3-13.5c-5.5,0-9.1,5.6-9.1,13.3v0.1c0,7.7,3.7,13.4,9.3,13.4
			C67.7,413.7,71.2,408.1,71.2,400.4z"/>
	</g>
</g>
</svg>
